{
  "$id": "equipment/aor_raised_cylinder.v1-0-0.json",
  "$schema": "https://raw.githubusercontent.com/Vidminas/python-jsonschema-minmax/main/metaschema/minmax-metaschema.json",

  "type": "object",
  "properties": {
    "test_category": { "const": "Angle of Repose" },
    "test_subcategory": { "const": "Raised Cylinder" },
    "class": { "label": "Test Regime", "const": "Quasi-Static" },
    "rating": { "label": "Repeatability Rating", "const": 3 },
    "geometric_properties": { "$ref": "#/$defs/geometric_properties" },
    "measurement_parameters": { "$ref": "#/$defs/measurement_parameters" }
  },
  "required": ["geometric_properties", "measurement_parameters"],

  "$defs": {
    "geometric_properties": { "label": "Geometric Properties",
      "type": "object",
      "properties": {
        "cylinder_diameter": { "label": "Cylinder Diameter", "type": "number", "minimum": 0, "units": ["mm"] },
        "vertical_translation_rate": { "label": "Vertical Translation Rate", "type": "number", "minimum": 0, "units": ["mm/s"] },
        "fill_mass": { "label": "Filled Mass", "type": "number", "minimum": 0, "units": ["g"] },
        "fill_height": { "label": "Filled Height", "type": "number", "minimum": 0, "units": ["mm"] }
      },
      "additionalProperties": false
    },
    "measurement_parameters": { "label": "Measurement Properties",
      "type": "object",
      "properties": {
        "angle_accuracy": { "label": "Angle Accuracy", "type": "number", "minimum": 0, "units": ["degrees"] },
        "angle_resolution": { "label": "Angle Resolution", "type": "number", "minimum": 0, "units": ["degrees"] }
      },
      "additionalProperties": false
    }
  }
}
