{
  "$id": "equipment/breakage_pin.v1-0-0.json",
  "$schema": "https://raw.githubusercontent.com/Vidminas/python-jsonschema-minmax/main/metaschema/minmax-metaschema.json",

  "type": "object",
  "properties": {
    "test_category": { "const": "Breakage" },
    "test_subcategory": { "const": "Pin Mill" },
    "class": { "label": "Test Regime", "const": "" },
    "rating": { "label": "Repeatability Rating", "const": 0 }
  },
  "required": [ ],

  "$defs": {
    "geometric_properties": { "label": "Geometric Properties",
      "type": "object",
      "properties": {
        "bed_height": { "label": "bed_height", "type": "number", "minimum": 0, "units": [ "mm" ] },
        "bed_area": { "label": "bed_area", "type": "number", "minimum": 0, "units": [ "mm^2" ] },
        "bed_mass": { "label": "bed_mass", "type": "number", "minimum": 0, "units": [ "g" ] },
        "wall_material": { "type": "string" }
      },
      "additionalProperties": false
    },
    "measurement_parameters": { "label": "Measurement Properties",
      "type": "object",
      "properties": {
        "angle_accuracy": { "label": "angle_accuracy", "type": "number", "minimum": 0, "units": [ "degrees" ] },
        "angle_resolution": { "label": "angle_resolution", "type": "number", "minimum": 0, "units": [ "degrees" ] }
      },
      "additionalProperties": false
    }
  }
}
