{
  "$id": "equipment/complex_shear_biaxial.v1-0-0.json",
  "$schema": "https://raw.githubusercontent.com/Vidminas/python-jsonschema-minmax/main/metaschema/minmax-metaschema.json",

  "type": "object",
  "properties": {
    "test_category": { "const": "Complex Shear" },
    "test_subcategory": { "const": "Biaxial" },
    "class": { "label": "Test Regime", "const": "Quasi-static" },
    "rating": { "label": "Repeatability Rating", "const": 5 },
    "geometric_properties": { "$ref": "#/$defs/geometric_properties" },
    "measurement_parameters": { "$ref": "#/$defs/measurement_parameters" }
  },
  "required": ["geometric_properties", "measurement_parameters"],

  "$defs": {
    "geometric_properties": { "label": "Geometric Properties",
      "type": "object",
      "properties": {
        "cell_width_x": { "label": "Cell Width X", "type": "number", "minimum": 0, "units": ["mm"] },
        "cell_width_y": { "label": "Cell Width Y", "type": "number", "minimum": 0, "units": ["mm"] },
        "cell_height": { "label": "Cell Height", "type": "number", "minimum": 0, "units": ["mm"] },
        "wall_thickness": { "label": "Wall Thickness", "type": "number", "minimum": 0, "units": ["mm"] },
        "max_translational_velocity": { "label": "Max. Translational Velocity", "type": "number", "minimum": 0, "units": ["mm/s"] },
        "cell_material": { "label": "Cell Material", "type": "string" },
        "stress_application": { "label": "Vertical Stress Application method", "enum": ["Constant Mass", "Servo-Controlled"] }
      },
      "additionalProperties": false,
      "required": ["cell_width_x", "cell_width_y", "cell_height", "stress_application", "cell_material"]
    },
    "measurement_parameters": { "label": "Measurement Properties",
      "type": "object",
      "properties": {
        "force_accuracy": { "label": "Force Accuracy", "type": "number", "minimum": 0, "units": ["Pa"] },
        "force_resolution": { "label": "Force Resolution", "type": "number", "minimum": 0, "units": ["Pa"] },
        "displacement_accuracy": { "label": "Displacement Accuracy", "type": "number", "minimum": 0, "units": ["mm"] },
        "displacement_resolution": { "label": "Displacement Resolution", "type": "number", "minimum": 0, "units": ["mm"] }
      },
      "additionalProperties": false,
      "required": ["force_accuracy", "displacement_accuracy"]
    }
  }
}
