{
  "$id": "equipment/imaging_micro_ct.v1-0-0.json",
  "$schema": "https://raw.githubusercontent.com/Vidminas/python-jsonschema-minmax/main/metaschema/minmax-metaschema.json",

  "type": "object",
  "properties": {
    "test_category": { "const": "Imaging" },
    "test_subcategory": { "const": "Micro-CT" },
    "class": { "label": "Test Regime", "const": "Dynamic" },
    "rating": { "label": "Repeatability Rating", "const": 3 }
  },
  "required": [ ],

  "$defs": {
    "optical_properties": { "label": "Optical Properties",
      "type": "object",
      "properties": {
        "colour": { "enum": [ "Black & White", "Colour" ] },
        "sensor": { "type": "string" },
        "lens_mount": { "type": "string" },
        "lens": { "type": "string" },
        "operating_temperature_range": { "label": "Operating Temperature Range", "type": "string" }
      },
      "additionalProperties": false
    },
    "measurement_parameters": { "label": "Measurement Properties",
      "type": "object",
      "properties": {
        "image_resolution": { "type": "string" },
        "fps": { "type": "number", "minimum": 0 },
        "max_duration": { "type": "number", "minimum": 0 }
      },
      "additionalProperties": false
    }
  }
}
