{
  "$id": "equipment/imaging_sem.v1-0-0.json",
  "$schema": "https://raw.githubusercontent.com/Vidminas/python-jsonschema-minmax/main/metaschema/minmax-metaschema.json",

  "type": "object",
  "properties": {
    "test_category": { "const": "Imaging" },
    "test_subcategory": { "const": "SEM" },
    "class": { "label": "Test Regime", "const": "" },
    "rating": { "label": "Repeatability Rating", "const": 0 }
  },
  "required": [ ],

  "$defs": {
    "optical_properties": { "label": "Optical Properties",
      "type": "object",
      "properties": {
        "electron_spot_size": { "label": "Electron Spot Size", "type": "number" },
        "interaction_volume": { "label": "Interaction Volume Size", "type": "number" },
        "operating_temperature_range": { "label": "Operating Temperature Range", "type": "string" }
      },
      "additionalProperties": false
    },
    "measurement_parameters": { "label": "Measurement Properties",
      "type": "object",
      "properties": {
        "image_resolution": { "type": "string" },
        "fps": { "type": "number", "minimum": 0 },
        "max_duration": { "type": "number", "minimum": 0 }
      },
      "additionalProperties": false
    }
  }
}
