{
  "$id": "equipment/imaging_high_speed.v1-0-0.json",
  "$schema": "https://raw.githubusercontent.com/Vidminas/python-jsonschema-minmax/main/metaschema/minmax-metaschema.json",

  "type": "object",
  "properties": {
    "test_category": { "const": "Imaging" },
    "test_subcategory": { "const": "High Speed" },
    "class": { "label": "Test Regime", "const": "Dynamic" },
    "rating": { "label": "Repeatability Rating", "const": 3 },
    "optical_properties": { "$ref": "#/$defs/optical_properties" },
    "measurement_parameters": { "$ref": "#/$defs/measurement_parameters" }
  },
  "required": [ "optical_properties", "measurement_parameters" ],

  "$defs": {
    "optical_properties": { "label": "Optical Properties",
      "type": "object",
      "properties": {
        "sensor": { "label": "Sensor", "type": "string" },
        "sensor_colour": { "label": "Sensor Colour Scale", "enum": [ "Black & White", "Colour" ] },
        "sensor_resolution": { "label": "Sensor Resolution", "type": "string" },
        "sensor_size": { "label": "Sensor Size", "enum": [ "Full Frame", "APS-H", "APS-C", "Four Thirds", "One inch", "1/1.7 inch", "1/2.3 inch" ] },
        "lens": { "label": "Lens Type", "type": "string" },
        "lens_mount": { "label": "Lens Mount", "type": "string" },
        "operating_temperature_range": { "label": "Operating Temperature Range", "type": "string" }
      },
      "additionalProperties": false
    },
    "measurement_parameters": { "label": "Measurement Properties",
      "type": "object",
      "properties": {
        "image_resolution": { "label": "Image Resolution", "type": "string" },
        "image_aspect_ratio": { "label": "Image Aspect Ratio", "type": "string" },
        "fps": { "label": "Frames per sec", "type": "number", "minimum": 0 },
        "max_duration": { "label": "Exposure Duration", "type": "number", "minimum": 0 },
        "image_format": { "label": "Image Format", "enum": [ "JPEG", "BMP", "TIFF", "RAW", "PNG" ] }
                
      },
      "additionalProperties": false
    }
  }
}
