{
  "$id": "equipment/mixing_automated.v1-0-0.json",
  "$schema": "https://raw.githubusercontent.com/Vidminas/python-jsonschema-minmax/main/metaschema/minmax-metaschema.json",

  "type": "object",
  "properties": {
    "test_category": { "const": "Mixing" },
    "test_subcategory": { "const": "Automated" },
    "class": { "label": "Test Regime", "const": "" },
    "rating": { "label": "Repeatability Rating", "const": 0 }
  },
  "required": [ ],

  "$defs": {
    "geometric_properties": { "label": "Geometric Properties",
      "type": "object",
      "properties": {
        "cell_diameter": { "type": "number", "minimum": 0, "units": [ "mm" ] },
        "base_height": { "type": "number", "minimum": 0, "units": [ "mm" ] },
        "ring_height": { "type": "number", "minimum": 0, "units": [ "mm" ] },
        "wall_thickness": { "type": "number", "minimum": 0, "units": [ "mm" ] },
        "max_translation_speed": { "type": "number", "minimum": 0, "units": [ "mm/s" ] },
        "cell_material": { "type": "string" },
        "stress_application": { "enum": [ "Constant Mass", "Servo-Controlled" ] }
      },
      "additionalProperties": false
    },
    "measurement_parameters": { "label": "Measurement Properties",
      "type": "object",
      "properties": {
        "force_accuracy": { "type": "number", "minimum": 0, "units": [ "Pa" ] },
        "force_resolution": { "type": "number", "minimum": 0, "units": [ "Pa" ] },
        "displacement_accuracy": { "type": "number", "minimum": 0, "units": [ "mm" ] },
        "displacement_resolution": { "type": "number", "minimum": 0, "units": [ "mm" ] }
      },
      "additionalProperties": false
    }
  }
}
