{
  "$id": "equipment/rotational_shear_ring.v1-0-0.json",
  "$schema": "https://raw.githubusercontent.com/Vidminas/python-jsonschema-minmax/main/metaschema/minmax-metaschema.json",

  "type": "object",
  "properties": {
    "test_category": { "const": "Rotational Shear" },
    "test_subcategory": { "const": "Torsional (Split) Shear" },
    "class": { "label": "Test Regime", "const": "Quasi-static" },
    "rating": { "label": "Repeatability Rating", "const": 5 },
    "geometric_properties": { "$ref": "#/$defs/geometric_properties" },
    "measurement_parameters": { "$ref": "#/$defs/measurement_parameters" }
  },
  "required": ["geometric_properties", "measurement_parameters"],

  "$defs": {
    "geometric_properties": { "label": "Geometric Properties",
      "type": "object",
      "properties": {
        "cell_volume": { "label": "Cell Volume", "type": "number", "minimum": 0, "units": [ "ml" ] },
        "cell_diameter": { "label": "Cell Diameter", "type": "number", "minimum": 0, "units": [ "mm" ] },
        "base_height": { "label": "Base Height", "type": "number", "minimum": 0, "units": [ "mm" ] },
        "ring_height": { "label": "Ring Height", "type": "number", "minimum": 0, "units": [ "mm" ] },
        "wall_thickness": { "label": "Wall Thickness", "type": "number", "minimum": 0, "units": [ "mm" ] },
        "max_rotational_speed": { "label": "Max. Rotational Speed", "type": "number", "minimum": 0, "units": [ "rad/s" ] },
        "num_shear_vanes": { "label": "Num. Shear Vanes", "type": "number", "minimum": 0, "units": [ "rad/s" ] },
        "cell_material": { "label": "Cell Material", "type": "string" },
        "stress_application": { "label": "Vertical Stress Application Method", "enum": [ "Constant Mass", "Servo-Controlled" ] }
      },
      "additionalProperties": false,
      "required": ["cell_diameter", "base_height", "ring_height", "stress_application", "cell_material"]
    },
    "measurement_parameters": { "label": "Measurement Properties",
      "type": "object",
      "properties": {
        "force_accuracy": { "label": "Force Accuracy", "type": "number", "minimum": 0, "units": [ "Pa" ] },
        "force_resolution": { "label": "Force Resolution", "type": "number", "minimum": 0, "units": [ "Pa" ] },
        "torque_accuracy": { "label": "Torque Accuracy", "type": "number", "minimum": 0, "units": [ "Nm" ] },
        "torque_resolution": { "label": "Torque Resolution", "type": "number", "minimum": 0, "units": [ "Nm" ] },
        "displacement_accuracy": { "label": "Displacement Accuracy", "type": "number", "minimum": 0, "units": [ "mm" ] },
        "displacement_resolution": { "label": "Displacement Resolution", "type": "number", "minimum": 0, "units": [ "mm" ] }
      },
      "additionalProperties": false,
      "required": ["force_accuracy", "torque_accuracy", "displacement_accuracy"]
    }
  }
}
