{
  "$id": "equipment/silo_flat.v1-0-0.json",
  "$schema": "https://raw.githubusercontent.com/Vidminas/python-jsonschema-minmax/main/metaschema/minmax-metaschema.json",

  "type": "object",
  "properties": {
    "test_category": { "const": "Silo Discharge" },
    "test_subcategory": { "const": "Flat Bottom" },
    "class": { "label": "Test Regime", "const": "Dynamic" },
    "rating": { "label": "Repeatability Rating", "const": 4 },
    "geometric_properties": { "$ref": "#/$defs/geometric_properties" },
    "measurement_parameters": { "$ref": "#/$defs/measurement_parameters" }
  },
  "required": ["geometric_properties", "measurement_parameters"],

  "$defs": {
    "geometric_properties": { "label": "Geometric Properties",
      "type": "object",
      "properties": {
        "silo_diameter": { "label": "Silo Diameter", "type": "number", "minimum": 0 , "units": ["mm"]},
        "silo_height": { "label": "Silo Height", "type": "number", "minimum": 0 , "units": ["mm"]},
        "silo_volume": { "label": "Silo Volume", "type": "number", "minimum": 0 , "units": ["ml"]},
        "min_orifice_dimension": { "label": "Min. Orifice Dimension", "type": "number", "minimum": 0 , "units": ["mm"]},
        "max_orifice_dimension": { "label": "Max. Orifice Dimension", "type": "number", "minimum": 0 , "units": ["mm"]},
        "wall_material": { "label": "Wall Material", "type": "string" }
      },
      "additionalProperties": false
    },
    "measurement_parameters": { "label": "Measurement Properties",
      "type": "object",
      "properties": {
        "balance_accuracy": { "label": "Balance Accuracy", "type": "number", "minimum": 0, "units": [ "N" ] },
        "balance_resolution": { "label": "Balance Resolution", "type": "number", "minimum": 0, "units": [ "N" ] }
      },
      "additionalProperties": false
    }
  }
}
