{
  "$id": "experiment_configuration_details.v1-0-0.json",

  "required": ["test_category", "test_subcategory"],
  "unevaluatedProperties": true,
  "allOf": [
    { "$ref": "versioned-schema.json" },
    {
      "properties": {
        "test_category": {
          "enum": [
            "Density",
            "Angle of Repose",
            "Rotating Drum",
            "Penetration Test",
            "Confined Compression",
            "Uniaxial Test",
            "Linear Shear",
            "Rotational Shear",
            "Complex Shear",
            "Cohesion Test",
            "Rheometer",
            "Flow Through Orifice",
            "Silo Discharge",
            "Indirect Shear",
            "Fluidised Bed",
            "Milling",
            "Breakage",
            "Mixing",
            "Imaging"
          ]
        }
      }
    },
    {
      "if": { "properties": { "test_category": { "const": "Uniaxial Test" } } },
      "then": { "$ref": "#/$defs/uniaxial_tests" }
    },
    {
      "if": { "properties": { "test_category": { "const": "Linear Shear" } } },
      "then": { "$ref": "#/$defs/linear_shear_tests" }
    },
    {
      "if": { "properties": { "test_category": { "const": "Rotating Drum" } } },
      "then": { "$ref": "#/$defs/rotating_drum_tests" }
    },
    {
      "if": { "properties": { "test_category": { "const": "Imaging" } } },
      "then": { "$ref": "#/$defs/imaging_tests" }
    }
  ],

  "$defs": {
    "uniaxial_tests": {
      "properties": {
        "test_subcategory": { "enum": ["Automatic", "Manual"] }
      },
      "required": ["test_subcategory"],
      "allOf": [
        {
          "if": { "properties": { "test_subcategory": { "const": "Automatic" } } },
          "then": { "$ref": "experiment/uniaxial.v1-0-0.json" }
        },
        {
          "if": { "properties": { "test_subcategory": { "const": "Manual" } } },
          "then": { "$ref": "experiment/uniaxial.v1-0-0.json" }
        }
      ]
    },
    "linear_shear_tests": {
      "properties": {
        "test_subcategory": {
          "enum": ["Direct Shear Box", "Jenike"]
        }
      },
      "required": ["test_subcategory"],
      "allOf": [
        {
          "if": {
            "properties": {
              "test_subcategory": { "const": "Direct Shear Box" }
            }
          },
          "then": { "$ref": "experiment/linear_shear_direct.v1-0-0.json" }
        },
        {
          "if": { "properties": { "test_subcategory": { "const": "Jenike" } } },
          "then": { "$ref": "experiment/linear_shear_jenike.v1-0-0.json" }
        }
      ]
    },
    "rotating_drum_tests": {
      "properties": {
        "test_subcategory": { "enum": ["Indirect Drive"] }
      },
      "required": ["test_subcategory"],
      "allOf": [
        {
          "if": { "properties": { "test_subcategory": { "const": "Indirect Drive" } } },
          "then": { "$ref": "experiment/rotating_drum_indirect.v1-0-0.json" }
        }
      ]
    },
    "imaging_tests": {
      "properties": {
        "test_subcategory": { "enum": ["DIC", "Micro-CT"] }
      },
      "required": ["test_subcategory"],
      "allOf": [
        {
          "if": { "properties": { "test_subcategory": { "const": "DIC" } } },
          "then": { "$ref": "experiment/imaging_dic.v1-0-0.json" }
        },
        {
          "if": { "properties": { "test_subcategory": { "const": "Micro-CT" } } },
          "then": { "$ref": "experiment/imaging_micro_ct.v1-0-0.json" }
        }
      ]
    }
  }
}