{
  "$id": "experiment/linear_shear_jenike.v1-0-0.json",
  "$schema": "https://raw.githubusercontent.com/Vidminas/python-jsonschema-minmax/main/metaschema/minmax-metaschema.json",

  "type": "object",
  "properties": {
    "test_category": { "const": "Linear Shear" },
    "test_subcategory": { "const": "Jenike" },
    "test_parameters": { "$ref": "#/$defs/test_parameters" },
    "test_results": { "$ref": "#/$defs/test_results" }
  },
  "required": ["test_results", "test_parameters"],

  "$defs": {
    "test_parameters": {
      "type": "object",
      "properties": {
        "num_repeats": { "type": "number", "minimum": 1 },
        "num_twists": { "type": "number", "minimum": 0 },
        "pre_shear_stress": { "type": "number", "minimum": 0, "units": ["Pa"] },
        "normal_stress": { "type": "number", "minimum": 0, "units": ["Pa"] },
        "shear_rate": { "type": "number", "minimum": 0, "units": ["mm"] }
      },
      "additionalProperties": false,
      "required": ["num_repeats", "pre_shear_stress", "normal_stress"]

    },
    "test_results": {
      "type": "object",
      "properties": {
        "consolidated_bulk_density_mean": { "type": "number", "minimum": 0, "units": ["kg/m^3"] },
        "max_shear_stress_mean": { "type": "number", "minimum": 0, "units": ["Pa"] },
        "flow_function_coefficient_mean": { "type": "number", "minimum": 0, "maximum": 10 },
        "cohesion_intercept_mean": { "type": "number", "units": ["Pa"] },
        "angle_of_internal_friction_mean": { "type": "number", "minimum": 0, "units": ["degrees"] },
        "effective_cohesion_intercept_mean": { "type": "number", "units": ["Pa"] },
        "effective_angle_of_internal_friction_mean": { "type": "number", "minimum": 0, "units": ["degrees"] },
        "consolidated_bulk_density_std": { "type": "number", "minimum": 0, "units": ["kg/m^3"] },
        "max_shear_stress_std": { "type": "number", "minimum": 0, "units": ["Pa"] },
        "flow_function_coefficient_std": { "type": "number", "minimum": 0, "maximum": 10 },
        "cohesion_intercept_std": { "type": "number", "units": ["Pa"] },
        "angle_of_internal_friction_std": { "type": "number", "minimum": 0, "units": ["degrees"] },
        "effective_cohesion_intercept_std": { "type": "number", "units": ["Pa"] },
        "effective_angle_of_internal_friction_std": { "type": "number", "minimum": 0, "units": ["degrees"] }
      },
      "additionalProperties": false,
      "required": ["consolidated_bulk_density_mean", "max_shear_stress_mean"]
    }
  }
}
