{
  "$id": "experiment/uniaxial.v1-0-0.json",
  "$schema": "https://raw.githubusercontent.com/Vidminas/python-jsonschema-minmax/main/metaschema/minmax-metaschema.json",

  "type": "object",
  "properties": {
    "test_category": { "const": "Uniaxial" },
    "test_subcategory": { "enum": ["Manual", "Automated"] },
    "test_parameters": { "$ref": "#/$defs/test_parameters" },
    "test_results": { "$ref": "#/$defs/test_results" }
  },
  "required": ["test_results", "test_parameters"],

  "$defs": {
    "test_parameters": {
      "type": "object",
      "properties": {
        "num_repeats": { "type": "number", "minimum": 1 },
        "cylinder_height": { "type": "number", "minimum": 0 , "units": ["mm"]},
        "dual_ended_compression": { "enum": ["True", "False"]},
        "initial_stress": { "type": "number", "minimum": 0 , "units": ["kPa"]},
        "consolidation_stress": { "type": "number", "minimum": 0.01 , "units": ["kPa"]},
        "unconfined_strain_rate": { "type": "number", "minimum": 0.01 , "units": ["mm/s"]}
      },
      "additionalProperties": false,
      "required": ["num_repeats", "initial_stress", "consolidation_stress"]

    },
    "test_results": {
      "type": "object",
      "properties": {
        "initial_density_mean": { "type": "number", "minimum": 0 , "units": ["kg/m^3"]},
        "initial_ar_mean": { "type": "number", "minimum": 0},
        "consolidated_density_mean": { "type": "number", "minimum": 0 , "units": ["kg/m^3"]},
        "consolidated_ar_mean": { "type": "number", "minimum": 0},
        "elastic_recovery_mean": { "type": "number", "minimum": 0 , "units": ["mm"]},
        "unconfined_yield_strength_mean": { "type": "number", "minimum": 0 , "units": ["kPa"]},
        "unconfined_failure_strain_mean": { "type": "number", "minimum": 0 , "units": ["-"]},
        "initial_density_std": { "type": "number", "minimum": 0 , "units": ["kg/m^3"]},
        "initial_ar_std": { "type": "number", "minimum": 0},
        "consolidated_density_std": { "type": "number", "minimum": 0 , "units": ["kg/m^3"]},
        "consolidated_ar_std": { "type": "number", "minimum": 0},
        "elastic_recovery_std": { "type": "number", "minimum": 0 , "units": ["mm"]},
        "unconfined_yield_strength_std": { "type": "number", "minimum": 0 , "units": ["kPa"]},
        "unconfined_failure_strain_std": { "type": "number", "minimum": 0 , "units": ["-"]}
      },
      "additionalProperties": false,
      "required": ["consolidated_density_mean", "unconfined_yield_strength_mean", "unconfined_failure_strain_mean"]
    }
  }
}
